{
  "published_database": "published-posts.json",
  "source": {
    "feed": "https://www.upwork.com/ab/feed/jobs/rss?q=title%3A%28%28QA+OR+Tester+OR+Testing%29%29&subcategory2_uid=531770282589057031&sort=recency&paging=0%3B10&api_params=1&securityToken=899ddd276e149299087d4d89bde09acec6746bf24d25e33e240404ed8c35e157f7d70e87e420db677cbf8ec8b66c059624fd19b081c0cc748a4875b95eb27662&userUid=1351822598071832576&orgUid=1351822598080221185",
    "refresh_interval": 6000
  },
  "telegram": {
    "token": "1519331644:AAFp6yPZj05uVpCN2vfLGUnqgh_A9LWKg0Q",
    "channel": "-1001326003163"
  },
  "status_monitor_port": null
}